{
  "unpublishedPage": {
    "name": "Page1",
    "slug": "page1",
    "layouts": [
      {
        "viewMode": false,
        "dsl": {
          "widgetName": "MainContainer",
          "backgroundColor": "none",
          "rightColumn": 4896,
          "snapColumns": 64,
          "detachFromLayout": true,
          "widgetId": "0",
          "topRow": 0,
          "bottomRow": 1290,
          "containerStyle": "none",
          "snapRows": 125,
          "parentRowSpace": 1,
          "type": "CANVAS_WIDGET",
          "canExtend": true,
          "version": 59,
          "minHeight": 1292,
          "parentColumnSpace": 1,
          "dynamicBindingPathList": [],
          "leftColumn": 0,
          "children": [
            {
              "boxShadow": "none",
              "widgetName": "Button1",
              "buttonColor": "{{appsmith.theme.colors.primaryColor}}",
              "displayName": "Button",
              "iconSVG": "/static/media/icon.cca02633.svg",
              "topRow": 25,
              "bottomRow": 29,
              "parentRowSpace": 10,
              "type": "BUTTON_WIDGET",
              "hideCard": false,
              "animateLoading": true,
              "parentColumnSpace": 20.0625,
              "leftColumn": 31,
              "dynamicBindingPathList": [
                {
                  "key": "buttonColor"
                },
                {
                  "key": "borderRadius"
                }
              ],
              "text": "Submit",
              "isDisabled": false,
              "key": "9gms6w11kn",
              "isDeprecated": false,
              "rightColumn": 47,
              "isDefaultClickDisabled": true,
              "widgetId": "ck6xtr28g2",
              "isVisible": true,
              "recaptchaType": "V3",
              "version": 1,
              "parentId": "0",
              "renderMode": "CANVAS",
              "isLoading": false,
              "borderRadius": "{{appsmith.theme.borderRadius.appBorderRadius}}",
              "buttonVariant": "PRIMARY",
              "placement": "CENTER"
            }
          ]
        },
        "layoutOnLoadActions": [],
        "widgetNames": [
          "Button1",
          "MainContainer"
        ],
        "validOnPageLoadActions": true,
        "id": "Page1",
        "deleted": false,
        "policies": [],
        "userPermissions": []
      }
    ],
    "userPermissions": [],
    "policies": []
  },
  "deleted": false,
  "policies": [],
  "gitSyncId": "62380f219fa6862ae807c4a2_62380f219fa6862ae807c4a4"
}